<svg width="77" height="42" viewBox="0 0 77 42" fill="none" xmlns="http://www.w3.org/2000/svg">
<line x1="1.43934" y1="38.4393" x2="38.4393" y2="1.43934" stroke="#FF5C28" stroke-width="3"/>
<line y1="-1.5" x2="52.3259" y2="-1.5" transform="matrix(0.707107 0.707107 0.707107 -0.707107 39.5 2.5)" stroke="#FF5C28" stroke-width="3"/>
</svg>
